{
    "KPlugin": {
        "Authors": [
            {
                "Email": "sebas@kde.org",
                "Name": "Sebastian Kügler",
                "Name[ar]": "Sebastian Kügler",
                "Name[az]": "Sebastian Kügler",
                "Name[be]": "Sebastian Kügler",
                "Name[bg]": "Sebastian Kügler",
                "Name[ca@valencia]": "Sebastian Kügler",
                "Name[ca]": "Sebastian Kügler",
                "Name[cs]": "Sebastian Kügler",
                "Name[da]": "Sebastian Kügler",
                "Name[de]": "Sebastian Kügler",
                "Name[en_GB]": "Sebastian Kügler",
                "Name[es]": "Sebastian Kügler",
                "Name[et]": "Sebastian Kügler",
                "Name[eu]": "Sebastian Kügler",
                "Name[fi]": "Sebastian Kügler",
                "Name[fr]": "Sebastian Kügler",
                "Name[hu]": "Sebastian Kügler",
                "Name[ia]": "Sebastian Kügler",
                "Name[id]": "Sebastian Kügler",
                "Name[is]": "Sebastian Kügler",
                "Name[it]": "Sebastian Kügler",
                "Name[ja]": "Sebastian Kügler",
                "Name[ka]": "სებასტიან კუგლერი",
                "Name[ko]": "Sebastian Kügler",
                "Name[lt]": "Sebastian Kügler",
                "Name[nl]": "Sebastian Kügler",
                "Name[nn]": "Sebastian Kügler",
                "Name[pa]": "Sebastian Kügler",
                "Name[pl]": "Sebastian Kügler",
                "Name[pt]": "Sebastian Kügler",
                "Name[pt_BR]": "Sebastian Kügler",
                "Name[ro]": "Sebastian Kügler",
                "Name[ru]": "Sebastian Kügler",
                "Name[sk]": "Sebastian Kügler",
                "Name[sl]": "Sebastian Kügler",
                "Name[sv]": "Sebastian Kügler",
                "Name[ta]": "ஸெபாஸ்டியன் கூக்லர்",
                "Name[tr]": "Sebastian Kügler",
                "Name[uk]": "Sebastian Kügler",
                "Name[vi]": "Sebastian Kügler",
                "Name[x-test]": "xxSebastian Küglerxx",
                "Name[zh_CN]": "Sebastian Kügler"
            }
        ],
        "BugReportUrl": "https://bugs.kde.org/enter_bug.cgi?product=plasmashell&component=Calendar",
        "Category": "Date and Time",
        "Description": "Month display with your appointments and events",
        "Description[ar]": "عرض للشّهر فيه المواعيد والأحداث",
        "Description[az]": "Hər aya planlaşdırılmış işlərin və tədbirlərinizin təqvimi",
        "Description[be]": "Паказ месяца з вашымі сустрэчамі і падзеямі",
        "Description[bg]": "Показване на месеца с вашите събития и срещи",
        "Description[ca@valencia]": "Mostra el mes amb les cites i els esdeveniments",
        "Description[ca]": "Mostra el mes amb les cites i els esdeveniments",
        "Description[da]": "Månedsvisning med dine aftaler og begivenheder",
        "Description[de]": "Monatsanzeige mit Ihren Verabredungen und Terminen",
        "Description[en_GB]": "Month display with your appointments and events",
        "Description[es]": "Calendario mensual con sus citas y eventos",
        "Description[et]": "Kuuvaade ühes kõigi kohtumiste ja sündmustega",
        "Description[eu]": "Hileko ikuspegia zure hitzordu eta gertaerekin",
        "Description[fi]": "Kalenterimerkintöjen kuukausinäkymä",
        "Description[fr]": "Affichage par mois de vos rendez-vous et évènements",
        "Description[hu]": "Megjeleníti a hónapban esedékes időpontokat és eseményeket",
        "Description[ia]": "Monstrator de mense con tu appunctamentos e eventos",
        "Description[id]": "Tampilan bulan dengan janji temu dan acaramu",
        "Description[is]": "Mánaðaryfirlit með tímabókunum þínum og verkefnum",
        "Description[it]": "Visualizzazione del mese con i tuoi appuntamenti ed eventi",
        "Description[ja]": "予定とイベントを月ごとに表示します",
        "Description[ka]": "თვის ჩვენება თქვენი მოვლენებით",
        "Description[ko]": "내 약속과 이벤트가 있는 달력 표시",
        "Description[lt]": "Jūsų užduotys ir įvykiai mėnesiui",
        "Description[nl]": "Maandweergave met uw afspraken en gebeurtenissen",
        "Description[nn]": "Månadsvising med avtaler og hendingar",
        "Description[pa]": "ਤੁਹਾਡੀਆਂ ਮੁਲਾਕਾਤਾਂ ਤੇ ਸਮਾਗਮਾਂ ਨਾਲ ਮਹੀਨਾ ਵੇਖੋ",
        "Description[pl]": "Wyświetlanie miesiąca z twoimi spotkaniami i wydarzeniami",
        "Description[pt]": "Vista mensal com os seus compromissos e eventos",
        "Description[pt_BR]": "Exibição mensal com seus compromissos e eventos",
        "Description[ro]": "Afișarea lunii cu programări și evenimente",
        "Description[ru]": "Календарь на месяц с запланированными делами и событиями",
        "Description[sk]": "Zobrazenie mesiaca s vašimi schôdzkami a udalosťami",
        "Description[sl]": "Mesečni prikaz z vašimi sestanki in dogodki",
        "Description[sv]": "Månatlig visning av möten och händelser",
        "Description[ta]": "நிகழ்வுகள் மற்றும் சந்திப்புகளைக் காட்டும் மாத நாள்காட்டி",
        "Description[tr]": "Randevularınız ve etkinliklerinizle birlikte ay görünümü",
        "Description[uk]": "Показ розкладу місяця із вашими записами зустрічей і подій",
        "Description[vi]": "Hiển thị tháng với các buổi hẹn và sự kiện của bạn",
        "Description[x-test]": "xxMonth display with your appointments and eventsxx",
        "Description[zh_CN]": "按月显示您的预约和事件",
        "FormFactors": [
            "tablet",
            "handset",
            "desktop"
        ],
        "Icon": "office-calendar",
        "Id": "org.kde.plasma.calendar",
        "License": "GPL-2.0+",
        "Name": "Calendar",
        "Name[ar]": "التقويم",
        "Name[az]": "Təqvim",
        "Name[be@latin]": "Kalandar",
        "Name[be]": "Каляндар",
        "Name[bg]": "Календар",
        "Name[bn]": "ক্যালেণ্ডার",
        "Name[bn_IN]": "বর্ষপঞ্জি",
        "Name[bs]": "Kalendar",
        "Name[ca@valencia]": "Calendari",
        "Name[ca]": "Calendari",
        "Name[cs]": "Kalendář",
        "Name[csb]": "Kalãdôrz",
        "Name[da]": "Kalender",
        "Name[de]": "Kalender",
        "Name[el]": "Ημερολόγιο",
        "Name[en_GB]": "Calendar",
        "Name[eo]": "Kalendaro",
        "Name[es]": "Calendario",
        "Name[et]": "Kalender",
        "Name[eu]": "Egutegia",
        "Name[fa]": "تقویم",
        "Name[fi]": "Kalenteri",
        "Name[fr]": "Calendrier",
        "Name[fy]": "Aginda",
        "Name[ga]": "Féilire",
        "Name[gl]": "Calendario",
        "Name[gu]": "કેલેન્ડર",
        "Name[he]": "לוח שנה",
        "Name[hi]": "कैलेन्डर",
        "Name[hne]": "कलेन्डर",
        "Name[hr]": "Kalendar",
        "Name[hsb]": "Protyka",
        "Name[hu]": "Naptár",
        "Name[ia]": "Calendario",
        "Name[id]": "Kalender",
        "Name[is]": "Dagatal",
        "Name[it]": "Calendario",
        "Name[ja]": "カレンダー",
        "Name[ka]": "კალენდარი",
        "Name[kk]": "Күнтізбе",
        "Name[km]": "ប្រតិទិន",
        "Name[kn]": "ದಿನಸೂಚಿ",
        "Name[ko]": "달력",
        "Name[ku]": "Salname",
        "Name[lt]": "Kalendorius",
        "Name[lv]": "Kalendārs",
        "Name[mai]": "कैलेंडर",
        "Name[mk]": "Календар",
        "Name[ml]": "കലണ്ടര്‍",
        "Name[mr]": "दिनदर्शिका",
        "Name[nb]": "Kalender",
        "Name[nds]": "Kalenner",
        "Name[nl]": "Kalender",
        "Name[nn]": "Kalender",
        "Name[pa]": "ਕੈਲੰਡਰ",
        "Name[pl]": "Kalendarz",
        "Name[pt]": "Calendário",
        "Name[pt_BR]": "Calendário",
        "Name[ro]": "Calendar",
        "Name[ru]": "Календарь",
        "Name[si]": "දිනදර්ශනය",
        "Name[sk]": "Kalendár",
        "Name[sl]": "Koledar",
        "Name[sr@ijekavian]": "календар",
        "Name[sr@ijekavianlatin]": "kalendar",
        "Name[sr@latin]": "kalendar",
        "Name[sr]": "календар",
        "Name[sv]": "Kalender",
        "Name[ta]": "நாட்காட்டி",
        "Name[tg]": "Тақвим",
        "Name[th]": "ปฏิทิน",
        "Name[tr]": "Takvim",
        "Name[ug]": "يىلنامە",
        "Name[uk]": "Календар",
        "Name[vi]": "Lịch",
        "Name[wa]": "Calindrî",
        "Name[x-test]": "xxCalendarxx",
        "Name[zh_CN]": "日历",
        "Name[zh_TW]": "行事曆",
        "ServiceTypes": [
            "Plasma/Applet"
        ],
        "Version": "2.0",
        "Website": "https://kde.org/plasma-desktop"
    },
    "X-Plasma-API": "declarativeappletscript",
    "X-Plasma-MainScript": "ui/main.qml",
    "X-Plasma-Provides": [
        "org.kde.plasma.date"
    ],
    "X-Plasma-StandAloneApp": true
}
